﻿Nro de Venta;3;;;;;;
Fecha de Venta;13/6/2021;;;;;;
Cliente;3;;;;;;
Efectivo;100;;;;;;
Tarjeta;;;;;;;
Tarjeta 2;;;;;;;
Cheque;50;Galicia;1111;10/6/2021;;;
Credito/Cta Corriente;;;;;;;
Producto;Cantidad;;;;;;
5;15;;;;;;
4;20;;;;;;
2;5;;;;;;
